####
#
#	OBJ File Generated by LightWave3D
#	LightWave3D OBJ Export v2.2
#
####
#	Object: 5
#
#	                Vertices: 16
#	                  Points: 0
#	                   Lines: 0
#	                   Faces: 14
#	               Materials: 1
#
####

o 5

#	             Vertex list

v -8.8992 30.6528 13.4352
v 3.9552 29.664 13.4352
v 20.7648 29.1696 13.4352
v 27.192 25.2144 13.4352
v 30.1584 20.2704 13.4352
v 30.1584 13.8432 13.4352
v 22.7424 1.4832 13.4352
v 21.2592 -17.304 13.4352
v 16.3152 -25.2144 13.4352
v 6.9216 -31.1472 13.4352
v -4.4496 -30.1584 13.4352
v -18.7872 -17.7984 13.4352
v -30.1584 0.9888 13.4352
v -29.664 14.3376 13.4352
v -24.72 22.7424 13.4352
v -18.7872 27.6864 13.4352

#	               Face list

usemtl Default
f 9 11 10
f 9 12 11
f 13 12 9
f 14 13 9
f 5 4 6
f 6 4 7
f 4 3 7
f 3 2 7
f 2 1 7
f 7 1 8
f 1 16 8
f 8 14 9
f 15 14 8
f 16 15 8

#	             End of file
